…
\#Part 2

``` r
dplyr::sample_frac(diamonds, 0.01, replace = TRUE) #create a data set that contains 1% of the rows
```

    ## # A tibble: 539 × 10
    ##    carat cut       color clarity depth table price     x     y     z
    ##    <dbl> <ord>     <ord> <ord>   <dbl> <dbl> <int> <dbl> <dbl> <dbl>
    ##  1  0.28 Very Good E     VS1      62.2  59     428  4.19  4.23  2.62
    ##  2  1.53 Ideal     F     SI1      62    56   11229  7.43  7.38  4.59
    ##  3  0.31 Ideal     E     VS1      61.6  57     942  4.35  4.32  2.67
    ##  4  0.92 Premium   H     VS2      59.6  59    3916  6.32  6.29  3.76
    ##  5  0.61 Ideal     E     VVS2     62.4  53.9  2907  5.42  5.43  3.38
    ##  6  0.32 Ideal     D     VS2      61.7  54     758  4.38  4.43  2.72
    ##  7  0.3  Ideal     D     SI1      62.5  57     709  4.32  4.29  2.69
    ##  8  1.07 Premium   F     SI2      61.8  59    4560  6.53  6.57  4.05
    ##  9  0.54 Ideal     G     VS2      62.8  55    1441  5.23  5.17  3.27
    ## 10  1.09 Ideal     E     SI2      61.6  55    5035  6.6   6.64  4.08
    ## # … with 529 more rows
…
